{
  "adapter":"unsecured",
  "host":"192.168.1.66",
  "port":"26257",
  "name":"surf",
  "user":"surf_user",
  "password":"gyGoQr39vCR5wSPOXXfF",
  "sslmode":"verify-ca",
  "sslcert":"/Source/cockroachCerts/cert/client.surf_user.crt",
  "sslkey":"/Source/cockroachCerts/cert/client.surf_user.key",
  "sslrootcert":"/Source/cockroachCerts/cert/ca.crt",
  "root":"root",
  "rootcert":"/Source/cockroachCerts/cert/client.root.crt",
  "rootkey":"/Source/cockroachCerts/cert/client.root.key"
}